<?xml version="1.0" encoding="iso-8859-1"?>
<!-- Generator: Adobe Illustrator 19.0.0, SVG Export Plug-In . SVG Version: 6.00 Build 0)  -->
<svg xmlns="http://www.w3.org/2000/svg" xmlns:xlink="http://www.w3.org/1999/xlink" version="1.1" id="Capa_1" x="0px" y="0px" viewBox="0 0 512 512" style="enable-background:new 0 0 512 512;" xml:space="preserve" width="512px" height="512px">
<g>
	<g>
		<g>
			<path d="M181.333,64h21.333c5.896,0,10.667-4.771,10.667-10.667c0-5.896-4.771-10.667-10.667-10.667h-21.333     c-5.896,0-10.667,4.771-10.667,10.667C170.667,59.229,175.438,64,181.333,64z" fill="#006DF0"/>
			<path d="M160,469.333h64c5.896,0,10.667-4.771,10.667-10.667S229.896,448,224,448h-64c-5.896,0-10.667,4.771-10.667,10.667     S154.104,469.333,160,469.333z" fill="#006DF0"/>
			<circle cx="309.333" cy="53.333" r="10.667" fill="#006DF0"/>
			<path d="M394.667,106.667c-5.896,0-10.667,4.771-10.667,10.667v13.762l-21.333,7.466V42.667C362.667,19.135,343.531,0,320,0H64     C40.469,0,21.333,19.135,21.333,42.667v426.667C21.333,492.865,40.469,512,64,512h256c23.531,0,42.667-19.135,42.667-42.667     V309.439L384,316.905v13.762c0,5.896,4.771,10.667,10.667,10.667s10.667-4.771,10.667-10.667V117.333     C405.333,111.438,400.563,106.667,394.667,106.667z M341.333,469.333c0,11.76-9.573,21.333-21.333,21.333H64     c-11.76,0-21.333-9.573-21.333-21.333v-42.667h298.667V469.333z M341.333,405.333H42.667V42.667     c0-11.76,9.573-21.333,21.333-21.333h256c11.76,0,21.333,9.573,21.333,21.333v103.362l-150.156,52.555     c-1.604-3.863-5.397-6.583-9.844-6.583c-5.896,0-10.667,4.771-10.667,10.667v42.667c0,5.896,4.771,10.667,10.667,10.667     c4.447,0,8.24-2.72,9.844-6.583l33.292,11.652c-0.229,1.885-0.469,3.772-0.469,5.598C224,296.073,247.927,320,277.333,320     c18.548,0,35.164-9.493,44.813-24.743l19.188,6.715V405.333z M245.512,268.435l55.467,19.413     c-5.928,6.684-14.332,10.819-23.646,10.819C260.293,298.667,246.449,285.243,245.512,268.435z M384,294.302l-192-67.207v-6.19     l192-67.207V294.302z" fill="#006DF0"/>
			<path d="M480,213.333h-42.667c-5.896,0-10.667,4.771-10.667,10.667s4.771,10.667,10.667,10.667H480     c5.896,0,10.667-4.771,10.667-10.667S485.896,213.333,480,213.333z" fill="#006DF0"/>
			<path d="M437.333,170.667c2.729,0,5.458-1.042,7.542-3.125l32-32c4.167-4.167,4.167-10.917,0-15.083     c-4.167-4.167-10.917-4.167-15.083,0l-32,32c-4.167,4.167-4.167,10.917,0,15.083     C431.875,169.625,434.604,170.667,437.333,170.667z" fill="#006DF0"/>
			<path d="M444.875,280.458c-4.167-4.167-10.917-4.167-15.083,0c-4.167,4.167-4.167,10.917,0,15.083l32,32     c2.083,2.083,4.813,3.125,7.542,3.125c2.729,0,5.458-1.042,7.542-3.125c4.167-4.167,4.167-10.917,0-15.083L444.875,280.458z" fill="#006DF0"/>
		</g>
	</g>
</g>
<g>
</g>
<g>
</g>
<g>
</g>
<g>
</g>
<g>
</g>
<g>
</g>
<g>
</g>
<g>
</g>
<g>
</g>
<g>
</g>
<g>
</g>
<g>
</g>
<g>
</g>
<g>
</g>
<g>
</g>
</svg>
